
{
    "title": "Classic Faux Pearl Necklace",
    "description": "Discover the timeless elegance of our Classic Faux Pearl Necklace, designed to add a touch of sophistication to any outfit. Perfect for both casual and formal occasions, this necklace is a must-have accessory for your jewelry collection.",
    "keyFeatures": [
      "Elegant Design: Features high-quality, round faux pearls with a smooth, lustrous finish.",
      "Durable Construction: Crafted with a sturdy, yet delicate clasp for secure wear.",
      "Versatile Length: Measures 18 inches, ideal for a flattering, classic fit around the neckline.",
      "Hypoallergenic: Made from materials that are gentle on sensitive skin.",
      "Affordable Luxury: Get the look of real pearls without the high price tag."
    ],
    "details": [
      "Material: High-quality faux pearls",
      "Length: 18 inches",
      "Closure: Lobster clasp",
      "Color: Classic white",
      "Weight: Light and comfortable for all-day wear"
    ],
    "careInstructions": [
      "Avoid contact with water, perfume, and other chemicals to maintain the shine.",
      "Store in a jewelry box or pouch to prevent scratches."
    ],
    "shippingReturns": [
      "Shipping: Free standard shipping on orders over $50. Expedited shipping options available.",
      "Returns: 30-day money-back guarantee. If you're not satisfied with your purchase, return it for a full refund."
    ],
    "whyShopWithUs": [
      "Quality Guarantee: We stand by the quality of our products and offer a satisfaction guarantee.",
      "Exceptional Customer Service: Our friendly support team is here to help with any questions or concerns.",
      "Secure Shopping: Enjoy a safe and secure shopping experience with our encrypted payment system."
    ]
  }